1. Summary
Meeting title	LEX Workshop
Attended participants	8
Start time	6/1/22, 10:02:21 AM
End time	6/1/22, 11:59:33 AM
Meeting duration	1h 57m 12s
Average attendance time	1h 40m 20s

2. Participants
Name	First join	Last leave	In-meeting duration	Email	Participant ID (UPN)	Role
Maria Marquina Guevara	6/1/22, 10:02:26 AM	6/1/22, 11:41:03 AM	1h 38m 36s	Maria.Marquina@fundacion-jala.org	Maria.Marquina@fundacion-jala.org	Organizer
Kevin Cardenas Rodriguez	6/1/22, 10:02:58 AM	6/1/22, 11:41:00 AM	1h 38m 1s	Kevin.Cardenas@jala-foundation.org	Kevin.Cardenas@jala-foundation.org	Presenter
Leonardo Villalba Ferrer	6/1/22, 10:02:59 AM	6/1/22, 11:40:56 AM	1h 37m 56s	Leonardo.Villalba@jala-foundation.org	Leonardo.Villalba@jala-foundation.org	Presenter
Luis Becerra Vazquez	6/1/22, 10:03:01 AM	6/1/22, 11:40:59 AM	1h 37m 57s	Luis.Becerra@jala-foundation.org	Luis.Becerra@jala-foundation.org	Presenter
Martin Pavesio Sabini	6/1/22, 10:03:02 AM	6/1/22, 11:41:01 AM	1h 37m 58s	Martin.Pavesio@jala-foundation.org	Martin.Pavesio@jala-foundation.org	Presenter
Martin Gonzalez Torrilla	6/1/22, 10:03:04 AM	6/1/22, 11:59:33 AM	1h 56m 28s	Martin.Gonzalez@jala-foundation.org	Martin.Gonzalez@jala-foundation.org	Presenter
Joaquin Aman Alvarez	6/1/22, 10:03:06 AM	6/1/22, 11:40:58 AM	1h 37m 51s	Joaquin.Aman@jala-foundation.org	Joaquin.Aman@jala-foundation.org	Presenter
Cesar Illanes Argote	6/1/22, 10:03:07 AM	6/1/22, 11:41:02 AM	1h 37m 55s	Cesar.Illanes@jala-foundation.org	Cesar.Illanes@jala-foundation.org	Presenter

3. In-Meeting activities
Name	Join time	Leave time	Duration	Email	Role
Maria Marquina Guevara	6/1/22, 10:02:26 AM	6/1/22, 11:41:03 AM	1h 38m 36s	Maria.Marquina@fundacion-jala.org	Organizer
Kevin Cardenas Rodriguez	6/1/22, 10:02:58 AM	6/1/22, 11:41:00 AM	1h 38m 1s	Kevin.Cardenas@jala-foundation.org	Presenter
Leonardo Villalba Ferrer	6/1/22, 10:02:59 AM	6/1/22, 11:40:56 AM	1h 37m 56s	Leonardo.Villalba@jala-foundation.org	Presenter
Luis Becerra Vazquez	6/1/22, 10:03:01 AM	6/1/22, 11:40:59 AM	1h 37m 57s	Luis.Becerra@jala-foundation.org	Presenter
Martin Pavesio Sabini	6/1/22, 10:03:02 AM	6/1/22, 11:41:01 AM	1h 37m 58s	Martin.Pavesio@jala-foundation.org	Presenter
Martin Gonzalez Torrilla	6/1/22, 10:03:04 AM	6/1/22, 11:59:33 AM	1h 56m 28s	Martin.Gonzalez@jala-foundation.org	Presenter
Joaquin Aman Alvarez	6/1/22, 10:03:06 AM	6/1/22, 11:40:58 AM	1h 37m 51s	Joaquin.Aman@jala-foundation.org	Presenter
Cesar Illanes Argote	6/1/22, 10:03:07 AM	6/1/22, 11:41:02 AM	1h 37m 55s	Cesar.Illanes@jala-foundation.org	Presenter
